{
    "KPlugin": {
        "MimeTypes": [
            "application/x-kspread",
            "application/x-kpresenter",
            "application/x-karbon",
            "application/x-kchart",
            "application/vnd.oasis.opendocument.text-master",
            "application/vnd.oasis.opendocument.text",
            "application/vnd.oasis.opendocument.text-template",
            "application/vnd.oasis.opendocument.graphics",
            "application/vnd.oasis.opendocument.graphics-template",
            "application/vnd.oasis.opendocument.presentation",
            "application/vnd.oasis.opendocument.presentation-template",
            "application/vnd.oasis.opendocument.spreadsheet",
            "application/vnd.oasis.opendocument.spreadsheet-template",
            "application/vnd.oasis.opendocument.chart",
            "application/vnd.oasis.opendocument.chart-template",
            "application/vnd.oasis.opendocument.formula",
            "application/vnd.oasis.opendocument.formula-template",
            "image/openraster"
        ],
        "Name": "Calligra Document Info Properties Page",
        "Name[ca@valencia]": "Pàgina d'informació de propietats de documents Calligra",
        "Name[ca]": "Pàgina d'informació de propietats de documents Calligra",
        "Name[cs]": "Stránka s informacemi o dokumentu Calligra",
        "Name[el]": "Σελίδα ιδιοτήτων των πληροφοριών εγγράφου του Calligra",
        "Name[en_GB]": "Calligra Document Info Properties Page",
        "Name[eo]": "Calligra Dokumenta Info Propraĵoj Paĝo",
        "Name[es]": "Página de propiedades informativas del documento de Calligra",
        "Name[fr]": "Page d'informations sur les propriétés d'un document « Calligra »",
        "Name[ia]": "Pagina de proprietates de Info de documento de Calligra",
        "Name[it]": "Pagina proprietà informazioni documento Calligra",
        "Name[ka]": "Calligra-ის დოკუმენტის ინფორმაციის თვისებების გვერდი",
        "Name[nl]": "Document-info-eigenschappen-pagina van Calligra",
        "Name[pl]": "Strona właściwości dokumentu Calligry",
        "Name[pt]": "Página de Propriedades do Documento do Calligra",
        "Name[pt_BR]": "Página de propriedades do documento do Calligra",
        "Name[sl]": "Stran informacij o lastnostih Calligra dokumenta",
        "Name[sv]": "Calligra-sida med dokumentinformation",
        "Name[tr]": "Calligra Belge Bilgisi Özellikleri Sayfası",
        "Name[uk]": "Сторінка даних щодо властивостей документа Calligra",
        "Name[x-test]": "xxCalligra Document Info Properties Pagexx"
    },
    "MimeType": "application/x-kspread;application/x-kpresenter;application/x-karbon;application/x-kchart;application/vnd.oasis.opendocument.text-master;application/vnd.oasis.opendocument.text;application/vnd.oasis.opendocument.text-template;application/vnd.oasis.opendocument.graphics;application/vnd.oasis.opendocument.graphics-template;application/vnd.oasis.opendocument.presentation;application/vnd.oasis.opendocument.presentation-template;application/vnd.oasis.opendocument.spreadsheet;application/vnd.oasis.opendocument.spreadsheet-template;application/vnd.oasis.opendocument.chart;application/vnd.oasis.opendocument.chart-template;application/vnd.oasis.opendocument.formula;application/vnd.oasis.opendocument.formula-template;image/openraster;",
    "X-KDE-Protocol": "file"
}
